Machine Learning for Educational Data Science Blog: Linear Regression and Penalized Regression Model (Lasso)
…
wf_lasso <- workflow() %>%
   add_recipe(rec)

lasso_fit <- wf_lasso %>%
  add_model(lasso_mod) %>%
  fit(data = data_train)

lasso_fit %>%
  pull_workflow_fit() %>%
  tidy()

# A tibble: 80 x 3
   term        estimate penalty
   <chr>          <dbl>   <dbl>
 1 (Intercept) -6.64e+3     0.1
 2 enrl_grd     2.74e+1     0.1
 3 tst_dt       4.49e-6     0.1
 4 lat         -6.14e-1     0.1
 5 lon         -3.36e+0     0.1
 6 ncesag       0.          0.1
 7 zip          1.65e-2     0.1
 8 total_n     -1.57e-3     0.1
 9 fr_lnch_n   -8.84e-2     0.1
10 red_lnch_n   4.70e-1     0.1
# ... with 70 more rows
…
set.seed(3000)
lasso_grid <- tune_grid(
  wf_lasso %>%
    add_model(tune_lasso), 
  resamples = cv,
  grid = lambda_grid
)

# Results

lasso_grid %>%
  collect_metrics()

# A tibble: 100 x 7
    penalty .metric .estimator   mean     n std_err .config
      <dbl> <chr>   <chr>       <dbl> <int>   <dbl> <fct>  
 1 1.00e-10 rmse    standard   95.9      10  2.50   Model01
 2 1.00e-10 rsq     standard    0.362    10  0.0169 Model01
 3 1.60e-10 rmse    standard   95.9      10  2.50   Model02
 4 1.60e-10 rsq     standard    0.362    10  0.0169 Model02
 5 2.56e-10 rmse    standard   95.9      10  2.50   Model03
 6 2.56e-10 rsq     standard    0.362    10  0.0169 Model03
 7 4.09e-10 rmse    standard   95.9      10  2.50   Model04
 8 4.09e-10 rsq     standard    0.362    10  0.0169 Model04
 9 6.55e-10 rmse    standard   95.9      10  2.50   Model05
10 6.55e-10 rsq     standard    0.362    10  0.0169 Model05
# ... with 90 more rows
…
